Project
…
suic_trend <- suic_trend %>%
    mutate(prop=(rate_2010*100/rate_2000)-100)

sum(suic_trend$prop<0)/nrow(suic_trend)

## [1] 0.6976744

sum(suic_trend$prop>0)/nrow(suic_trend)

## [1] 0.3023256

arrange(suic_trend,(prop))

## # A tibble: 86 x 6
##    country        rate_2000 rate_2010 region            income         prop
##    <fct>              <dbl>     <dbl> <fct>             <fct>         <dbl>
##  1 Antigua and B     18.1       0    Latin America &  High income  -100  
##  2 Barbados           11.8       2.84 Latin America &  High income   -76.0
##  3 Bahrain            45.9      11.9  Middle East & No High income   -74.1
##  4 Turkmenistan       97.5      29.2  Europe & Central Upper middl  -70.1
##  5 Grenada            13.5       6.28 Latin America &  Upper middl  -53.6
##  6 Maldives            8.34      4.46 South Asia        Upper middl  -46.5
##  7 Russian Feder    392.      222.   Europe & Central Upper middl  -43.5
##  8 Belarus           357.      231.   Europe & Central Upper middl  -35.1
##  9 Qatar              35.6      23.4  Middle East & No High income   -34.4
## 10 Estonia           276.      182.   Europe & Central High income   -33.9
## #  with 76 more rows

arrange(suic_trend,desc(prop))

## # A tibble: 86 x 6
##    country       rate_2000 rate_2010 region             income         prop
##    <fct>             <dbl>     <dbl> <fct>              <fct>         <dbl>
##  1 Jamaica            1.08      10.2 Latin America & C Upper middle 849. 
##  2 Cyprus             8.94      48.0 Europe & Central  High income   437. 
##  3 Suriname         157.       269.  Latin America & C Upper middle  71.7
##  4 Republic of     197.       308.  East Asia & Pacif High income    56.3
##  5 Paraguay          37.0       52.6 Latin America & C Upper middle  41.9
##  6 Guatemala         22.3       31.5 Latin America & C Upper middle  41.4
##  7 Philippines       19.6       27.3 East Asia & Pacif Lower middle  39.4
##  8 South Africa       7.30      10.1 Sub-Saharan Africa Upper middle  38.6
##  9 Greece            33.7       46.6 Europe & Central  High income    38.1
## 10 Bahamas           12.7       17.6 Latin America & C High income    38.0
## #  with 76 more rows
…
We can see from this plot and from the table above that the region with the highest mean suicide rates for males is Europe & Central Asia, followed closely by South Asia and then by East Asia & Pacific. For females, mean rates are highest in the East Asia & Pacific Region, followed by Europe & Central Asia.

The region with the highest difference between male and female suicide rates is Europe & Central Asia, where means are 24.9 and 6.9, respectively, and the difference is 18. The region where this difference is smaller is Middle East & Northern Africa, where means are 5.8 and 1.8, respectively, and the difference is 4.0.

We can now look at these differences by country.

suic_wide <- suic20072016 %>%
  select(country,region,sex,rate_20072016) %>%
  spread(sex, rate_20072016) %>%
  mutate (diff=male-female)

arrange(suic_wide,(diff))

## # A tibble: 95 x 5
## # Groups:   country [101]
##    country              region                     female  male   diff
##    <fct>                <fct>                       <dbl> <dbl>  <dbl>
##  1 Antigua and Barbuda  Latin America & Caribbean   0.312 0.341 0.0291
##  2 Kuwait               Middle East & North Africa  1.23  1.66  0.430 
##  3 Maldives             South Asia                  0.342 0.849 0.507 
##  4 Oman                 Middle East & North Africa  0     0.584 0.584 
##  5 Azerbaijan           Europe & Central Asia       0.346 1.06  0.712 
##  6 United Arab Emirates Middle East & North Africa  1.00  1.79  0.792 
##  7 Barbados             Latin America & Caribbean   0.104 0.913 0.809 
##  8 Grenada              Latin America & Caribbean   0.213 1.07  0.857 
##  9 South Africa         Sub-Saharan Africa          0.427 1.55  1.13  
## 10 Albania              Europe & Central Asia       2.59  4.32  1.73  
## #  with 85 more rows

arrange(suic_wide,desc(diff))

## # A tibble: 95 x 5
## # Groups:   country [101]
##    country            region                    female  male  diff
##    <fct>              <fct>                      <dbl> <dbl> <dbl>
##  1 Lithuania          Europe & Central Asia      11.5   62.5  51.0
##  2 Belarus            Europe & Central Asia       8.26  46.1  37.8
##  3 Russian Federation Europe & Central Asia       7.89  43.0  35.1
##  4 Latvia             Europe & Central Asia       7.43  40.2  32.8
##  5 Kazakhstan         Europe & Central Asia       8.31  40.6  32.3
##  6 Mongolia           East Asia & Pacific         4.64  35.4  30.8
##  7 Ukraine            Europe & Central Asia       7.00  37.6  30.6
##  8 Guyana             Latin America & Caribbean  13.6   42.5  28.9
##  9 Hungary            Europe & Central Asia      10.6   38.4  27.8
## 10 Slovenia           Europe & Central Asia       8.64  35.5  26.9
## #  with 85 more rows

Again, we can see there are no countries where the suicide rates (averaged over the past ten years) are higher for females than for males. Antigua & Barbuda has a very small difference between the sexes, only 0.029, and Lithuania has the highest. Since the rates vary greatly between countries, it might be more appropriate to look at these differences as a proportion. Lets look at how much greater the male rates are as a proportion of the female rates:

suic_wide <- suic_wide %>%
  mutate (prop=(100*male/female)-100)

arrange(suic_wide,(prop))

## # A tibble: 95 x 6
## # Groups:   country [101]
##    country             region                  female   male    diff   prop
##    <fct>               <fct>                    <dbl>  <dbl>   <dbl>  <dbl>
##  1 Antigua and Barbuda Latin America & Caribb  0.312  0.341  0.0291   9.34
##  2 Kuwait              Middle East & North Af  1.23   1.66   0.430   35.0 
##  3 Albania             Europe & Central Asia    2.59   4.32   1.73    67.0 
##  4 United Arab Emirat Middle East & North Af  1.00   1.79   0.792   79.1 
##  5 Singapore           East Asia & Pacific      6.37  12.5    6.16    96.6 
##  6 Republic of Korea   East Asia & Pacific     19.4   40.1   20.7    106.  
##  7 Uzbekistan          Europe & Central Asia    4.13   9.10   4.97   120.  
##  8 Netherlands         Europe & Central Asia    6.62  15.0    8.40   127.  
##  9 Montenegro          Europe & Central Asia   12.0   28.3   16.4    136.  
## 10 Norway              Europe & Central Asia    6.94  16.6    9.63   139.  
## #  with 85 more rows

arrange(suic_wide,desc(prop))

## # A tibble: 95 x 6
## # Groups:   country [101]
##    country     region                     female   male   diff  prop
##    <fct>       <fct>                       <dbl>  <dbl>  <dbl> <dbl>
##  1 Oman        Middle East & North Africa  0      0.584  0.584  Inf 
##  2 Seychelles  Sub-Saharan Africa          1.08  11.7   10.7    992.
##  3 Saint Lucia Latin America & Caribbean   1.03  10.2    9.22   891.
##  4 Jamaica     Latin America & Caribbean   0.230  2.08   1.85   805.
##  5 Barbados    Latin America & Caribbean   0.104  0.913  0.809  774.
##  6 Malta       Middle East & North Africa  1.50  12.0   10.5    697.
##  7 Mongolia    East Asia & Pacific         4.64  35.4   30.8    662.
##  8 Cabo Verde  Sub-Saharan Africa          2.20  16.5   14.3    650.
##  9 Slovakia    Europe & Central Asia       2.55  17.7   15.2    597.
## 10 Poland      Europe & Central Asia       4.37  29.7   25.3    579.
## #  with 85 more rows
…
